F:\DrewCode\ZnodeMultifront\ZnodeMultifront\Projects\Znode.Engine.WebStore\Scripts\BarcodeScanner\BarcodeReader.js
F:\DrewCode\ZnodeMultifront\ZnodeMultifront\Projects\Znode.Engine.WebStore\Scripts\BarcodeScanner\BarcodeReader.js.map
F:\DrewCode\ZnodeMultifront\ZnodeMultifront\Projects\Znode.Engine.WebStore\Scripts\ClientResource\Resource.de.js
F:\DrewCode\ZnodeMultifront\ZnodeMultifront\Projects\Znode.Engine.WebStore\Scripts\ClientResource\Resource.de.js.map
F:\DrewCode\ZnodeMultifront\ZnodeMultifront\Projects\Znode.Engine.WebStore\Scripts\ClientResource\Resource.en.js
F:\DrewCode\ZnodeMultifront\ZnodeMultifront\Projects\Znode.Engine.WebStore\Scripts\ClientResource\Resource.en.js.map
F:\DrewCode\ZnodeMultifront\ZnodeMultifront\Projects\Znode.Engine.WebStore\Scripts\ClientResource\Resource.fr.js
F:\DrewCode\ZnodeMultifront\ZnodeMultifront\Projects\Znode.Engine.WebStore\Scripts\ClientResource\Resource.fr.js.map
F:\DrewCode\ZnodeMultifront\ZnodeMultifront\Projects\Znode.Engine.WebStore\Scripts\Core\Common\ZnodeGlobal.js
F:\DrewCode\ZnodeMultifront\ZnodeMultifront\Projects\Znode.Engine.WebStore\Scripts\Core\Common\ZnodeGlobal.js.map
F:\DrewCode\ZnodeMultifront\ZnodeMultifront\Projects\Znode.Engine.WebStore\Scripts\Core\Common\ZnodeHelper.js
F:\DrewCode\ZnodeMultifront\ZnodeMultifront\Projects\Znode.Engine.WebStore\Scripts\Core\Common\ZnodeHelper.js.map
F:\DrewCode\ZnodeMultifront\ZnodeMultifront\Projects\Znode.Engine.WebStore\Scripts\Core\Common\ZnodeRegExHelper.js
F:\DrewCode\ZnodeMultifront\ZnodeMultifront\Projects\Znode.Engine.WebStore\Scripts\Core\Common\ZnodeRegExHelper.js.map
F:\DrewCode\ZnodeMultifront\ZnodeMultifront\Projects\Znode.Engine.WebStore\Scripts\Core\Controls\TextBoxEditorFor.js
F:\DrewCode\ZnodeMultifront\ZnodeMultifront\Projects\Znode.Engine.WebStore\Scripts\Core\Controls\TextBoxEditorFor.js.map
F:\DrewCode\ZnodeMultifront\ZnodeMultifront\Projects\Znode.Engine.WebStore\Scripts\Core\Controls\WebGrid\CustomJurl.js
F:\DrewCode\ZnodeMultifront\ZnodeMultifront\Projects\Znode.Engine.WebStore\Scripts\Core\Controls\WebGrid\CustomJurl.js.map
F:\DrewCode\ZnodeMultifront\ZnodeMultifront\Projects\Znode.Engine.WebStore\Scripts\Core\Controls\WebGrid\DynamicGrid.js
F:\DrewCode\ZnodeMultifront\ZnodeMultifront\Projects\Znode.Engine.WebStore\Scripts\Core\Controls\WebGrid\DynamicGrid.js.map
F:\DrewCode\ZnodeMultifront\ZnodeMultifront\Projects\Znode.Engine.WebStore\Scripts\Core\Controls\WebGrid\GridPager.js
F:\DrewCode\ZnodeMultifront\ZnodeMultifront\Projects\Znode.Engine.WebStore\Scripts\Core\Controls\WebGrid\GridPager.js.map
F:\DrewCode\ZnodeMultifront\ZnodeMultifront\Projects\Znode.Engine.WebStore\Scripts\Core\Controls\ZnodeAjaxify.js
F:\DrewCode\ZnodeMultifront\ZnodeMultifront\Projects\Znode.Engine.WebStore\Scripts\Core\Controls\ZnodeAjaxify.js.map
F:\DrewCode\ZnodeMultifront\ZnodeMultifront\Projects\Znode.Engine.WebStore\Scripts\Core\Controls\ZnodeMultiSelect.js
F:\DrewCode\ZnodeMultifront\ZnodeMultifront\Projects\Znode.Engine.WebStore\Scripts\Core\Controls\ZnodeMultiSelect.js.map
F:\DrewCode\ZnodeMultifront\ZnodeMultifront\Projects\Znode.Engine.WebStore\Scripts\Core\Endpoint\ZnodeEndpoint.js
F:\DrewCode\ZnodeMultifront\ZnodeMultifront\Projects\Znode.Engine.WebStore\Scripts\Core\Endpoint\ZnodeEndpoint.js.map
F:\DrewCode\ZnodeMultifront\ZnodeMultifront\Projects\Znode.Engine.WebStore\Scripts\Core\Model\Znode.Model.js
F:\DrewCode\ZnodeMultifront\ZnodeMultifront\Projects\Znode.Engine.WebStore\Scripts\Core\Model\Znode.Model.js.map
F:\DrewCode\ZnodeMultifront\ZnodeMultifront\Projects\Znode.Engine.WebStore\Scripts\Core\Znode\BlogNews.js
F:\DrewCode\ZnodeMultifront\ZnodeMultifront\Projects\Znode.Engine.WebStore\Scripts\Core\Znode\BlogNews.js.map
F:\DrewCode\ZnodeMultifront\ZnodeMultifront\Projects\Znode.Engine.WebStore\Scripts\Core\Znode\Brand.js
F:\DrewCode\ZnodeMultifront\ZnodeMultifront\Projects\Znode.Engine.WebStore\Scripts\Core\Znode\Brand.js.map
F:\DrewCode\ZnodeMultifront\ZnodeMultifront\Projects\Znode.Engine.WebStore\Scripts\Core\Znode\Cart.js
F:\DrewCode\ZnodeMultifront\ZnodeMultifront\Projects\Znode.Engine.WebStore\Scripts\Core\Znode\Cart.js.map
F:\DrewCode\ZnodeMultifront\ZnodeMultifront\Projects\Znode.Engine.WebStore\Scripts\Core\Znode\CaseRequest.js
F:\DrewCode\ZnodeMultifront\ZnodeMultifront\Projects\Znode.Engine.WebStore\Scripts\Core\Znode\CaseRequest.js.map
F:\DrewCode\ZnodeMultifront\ZnodeMultifront\Projects\Znode.Engine.WebStore\Scripts\Core\Znode\Category.js
F:\DrewCode\ZnodeMultifront\ZnodeMultifront\Projects\Znode.Engine.WebStore\Scripts\Core\Znode\Category.js.map
F:\DrewCode\ZnodeMultifront\ZnodeMultifront\Projects\Znode.Engine.WebStore\Scripts\Core\Znode\Checkout.js
F:\DrewCode\ZnodeMultifront\ZnodeMultifront\Projects\Znode.Engine.WebStore\Scripts\Core\Znode\Checkout.js.map
F:\DrewCode\ZnodeMultifront\ZnodeMultifront\Projects\Znode.Engine.WebStore\Scripts\Core\Znode\Config.js
F:\DrewCode\ZnodeMultifront\ZnodeMultifront\Projects\Znode.Engine.WebStore\Scripts\Core\Znode\Config.js.map
F:\DrewCode\ZnodeMultifront\ZnodeMultifront\Projects\Znode.Engine.WebStore\Scripts\Core\Znode\ContentPage.js
F:\DrewCode\ZnodeMultifront\ZnodeMultifront\Projects\Znode.Engine.WebStore\Scripts\Core\Znode\ContentPage.js.map
F:\DrewCode\ZnodeMultifront\ZnodeMultifront\Projects\Znode.Engine.WebStore\Scripts\Core\Znode\FormBuilder.js
F:\DrewCode\ZnodeMultifront\ZnodeMultifront\Projects\Znode.Engine.WebStore\Scripts\Core\Znode\FormBuilder.js.map
F:\DrewCode\ZnodeMultifront\ZnodeMultifront\Projects\Znode.Engine.WebStore\Scripts\Core\Znode\GoogleAnalytics.js
F:\DrewCode\ZnodeMultifront\ZnodeMultifront\Projects\Znode.Engine.WebStore\Scripts\Core\Znode\GoogleAnalytics.js.map
F:\DrewCode\ZnodeMultifront\ZnodeMultifront\Projects\Znode.Engine.WebStore\Scripts\Core\Znode\Home.js
F:\DrewCode\ZnodeMultifront\ZnodeMultifront\Projects\Znode.Engine.WebStore\Scripts\Core\Znode\Home.js.map
F:\DrewCode\ZnodeMultifront\ZnodeMultifront\Projects\Znode.Engine.WebStore\Scripts\Core\Znode\Import.js
F:\DrewCode\ZnodeMultifront\ZnodeMultifront\Projects\Znode.Engine.WebStore\Scripts\Core\Znode\Import.js.map
F:\DrewCode\ZnodeMultifront\ZnodeMultifront\Projects\Znode.Engine.WebStore\Scripts\Core\Znode\Product.js
F:\DrewCode\ZnodeMultifront\ZnodeMultifront\Projects\Znode.Engine.WebStore\Scripts\Core\Znode\Product.js.map
F:\DrewCode\ZnodeMultifront\ZnodeMultifront\Projects\Znode.Engine.WebStore\Scripts\Core\Znode\QuickOrder.js
F:\DrewCode\ZnodeMultifront\ZnodeMultifront\Projects\Znode.Engine.WebStore\Scripts\Core\Znode\QuickOrder.js.map
F:\DrewCode\ZnodeMultifront\ZnodeMultifront\Projects\Znode.Engine.WebStore\Scripts\Core\Znode\QuickOrderPad.js
F:\DrewCode\ZnodeMultifront\ZnodeMultifront\Projects\Znode.Engine.WebStore\Scripts\Core\Znode\QuickOrderPad.js.map
F:\DrewCode\ZnodeMultifront\ZnodeMultifront\Projects\Znode.Engine.WebStore\Scripts\Core\Znode\Quote.js
F:\DrewCode\ZnodeMultifront\ZnodeMultifront\Projects\Znode.Engine.WebStore\Scripts\Core\Znode\Quote.js.map
F:\DrewCode\ZnodeMultifront\ZnodeMultifront\Projects\Znode.Engine.WebStore\Scripts\Core\Znode\RMAReturn.js
F:\DrewCode\ZnodeMultifront\ZnodeMultifront\Projects\Znode.Engine.WebStore\Scripts\Core\Znode\RMAReturn.js.map
F:\DrewCode\ZnodeMultifront\ZnodeMultifront\Projects\Znode.Engine.WebStore\Scripts\Core\Znode\Search.js
F:\DrewCode\ZnodeMultifront\ZnodeMultifront\Projects\Znode.Engine.WebStore\Scripts\Core\Znode\Search.js.map
F:\DrewCode\ZnodeMultifront\ZnodeMultifront\Projects\Znode.Engine.WebStore\Scripts\Core\Znode\SiteMap.js
F:\DrewCode\ZnodeMultifront\ZnodeMultifront\Projects\Znode.Engine.WebStore\Scripts\Core\Znode\SiteMap.js.map
F:\DrewCode\ZnodeMultifront\ZnodeMultifront\Projects\Znode.Engine.WebStore\Scripts\Core\Znode\StoreLocator.js
F:\DrewCode\ZnodeMultifront\ZnodeMultifront\Projects\Znode.Engine.WebStore\Scripts\Core\Znode\StoreLocator.js.map
F:\DrewCode\ZnodeMultifront\ZnodeMultifront\Projects\Znode.Engine.WebStore\Scripts\Core\Znode\User.js
F:\DrewCode\ZnodeMultifront\ZnodeMultifront\Projects\Znode.Engine.WebStore\Scripts\Core\Znode\User.js.map
F:\DrewCode\ZnodeMultifront\ZnodeMultifront\Projects\Znode.Engine.WebStore\Scripts\Core\Znode\ZnodeNotification.js
F:\DrewCode\ZnodeMultifront\ZnodeMultifront\Projects\Znode.Engine.WebStore\Scripts\Core\Znode\ZnodeNotification.js.map
F:\DrewCode\ZnodeMultifront\ZnodeMultifront\Projects\Znode.Engine.WebStore\Scripts\Core\Znode\ZSearch.js
F:\DrewCode\ZnodeMultifront\ZnodeMultifront\Projects\Znode.Engine.WebStore\Scripts\Core\Znode\ZSearch.js.map
F:\DrewCode\ZnodeMultifront\ZnodeMultifront\Projects\Znode.Engine.WebStore\Scripts\Extensions\CustomHome.js
F:\DrewCode\ZnodeMultifront\ZnodeMultifront\Projects\Znode.Engine.WebStore\Scripts\Extensions\CustomHome.js.map
F:\DrewCode\ZnodeMultifront\ZnodeMultifront\Projects\Znode.Engine.WebStore\Scripts\VoiceRecognition\VoiceRecognition.js
F:\DrewCode\ZnodeMultifront\ZnodeMultifront\Projects\Znode.Engine.WebStore\Scripts\VoiceRecognition\VoiceRecognition.js.map
